%YAML 1.1
%TAG !u! tag:unity3d.com,2011:
--- !u!114 &11400000
MonoBehaviour:
  m_ObjectHideFlags: 0
  m_CorrespondingSourceObject: {fileID: 0}
  m_PrefabInstance: {fileID: 0}
  m_PrefabAsset: {fileID: 0}
  m_GameObject: {fileID: 0}
  m_Enabled: 1
  m_EditorHideFlags: 0
  m_Script: {fileID: 11500000, guid: 307d87d27f907ab409224ea823bb2f13, type: 3}
  m_Name: Swamp Donkey
  m_EditorClassIdentifier: 
  objectives:
  - reference: train
    description: Train up
    usesCondition: 1
    completionCondition:
      and:
      - or:
        - ePredicate: 5
          parameters:
          - Strength
          - 4
          negate: 0
  - reference: equip
    description: Get equiped
    usesCondition: 1
    completionCondition:
      and:
      - or:
        - ePredicate: 8
          parameters:
          - 77ad666c-513c-4c88-87b2-c8594bcd5a89
          negate: 0
  - reference: kill
    description: Kill it!
    usesCondition: 0
    completionCondition:
      and: []
  rewards:
  - number: 1000
    item: {fileID: 11400000, guid: 8a6e92726c664054d91e2fa36f225b9a, type: 2}
